<svg xmlns="http://www.w3.org/2000/svg" width="18.087" height="18.899" viewBox="0 0 18.087 18.899">
    <path d="M28.149,8.3,19.74.18a.631.631,0,0,0-.881,0L10.45,8.3a.634.634,0,0,0,.44,1.09h1.118v8.877a.634.634,0,0,0,.634.634H17.08a.634.634,0,0,0,.634-.634V13.193h3.17v5.072a.634.634,0,0,0,.634.634h4.438a.634.634,0,0,0,.634-.634V9.389h1.118a.634.634,0,0,0,.441-1.09Zm-1.558.456a.634.634,0,0,0-.634.634v8.877H21.518V13.193a.634.634,0,0,0-.634-.634h-3.17a.634.634,0,0,0-.634.634v5.072H12.642V9.389a.634.634,0,0,0-.634-.634H10.89L19.3.636l8.412,8.119H26.591Z"
          transform="translate(-10.256 -0.001)"/>
</svg>
